<svg width="16" height="16" viewBox="0 0 16 16" fill="none" xmlns="http://www.w3.org/2000/svg">
<path fill-rule="evenodd" clip-rule="evenodd" d="M6.51025 1.17C6.89025 -0.39 9.11025 -0.39 9.49025 1.17C9.54698 1.40442 9.65826 1.62212 9.81503 1.80541C9.97179 1.9887 10.1696 2.13238 10.3924 2.22477C10.6152 2.31716 10.8566 2.35564 11.0971 2.33709C11.3376 2.31854 11.5703 2.24347 11.7762 2.118C13.1482 1.282 14.7183 2.852 13.8823 4.224C13.3423 5.11 13.8212 6.266 14.8292 6.511C16.3902 6.89 16.3902 9.111 14.8292 9.489C14.5948 9.54581 14.377 9.65719 14.1937 9.81407C14.0105 9.97096 13.8668 10.1689 13.7745 10.3918C13.6822 10.6147 13.6439 10.8563 13.6626 11.0968C13.6813 11.3373 13.7566 11.5701 13.8823 11.776C14.7183 13.148 13.1482 14.718 11.7762 13.882C11.5703 13.7563 11.3376 13.6811 11.0971 13.6623C10.8565 13.6436 10.615 13.682 10.3921 13.7743C10.1692 13.8666 9.97121 14.0102 9.81432 14.1935C9.65744 14.3768 9.54606 14.5945 9.48925 14.829C9.11025 16.39 6.88925 16.39 6.51125 14.829C6.45425 14.5946 6.34276 14.377 6.18584 14.1939C6.02892 14.0107 5.831 13.8672 5.60816 13.7749C5.38532 13.6826 5.14386 13.6442 4.90339 13.6628C4.66292 13.6815 4.43024 13.7565 4.22425 13.882C2.85225 14.718 1.28225 13.148 2.11825 11.776C2.24371 11.57 2.31879 11.3373 2.3374 11.0969C2.35601 10.8564 2.31762 10.6149 2.22535 10.3921C2.13307 10.1692 1.98952 9.97133 1.80636 9.81441C1.6232 9.65749 1.4056 9.546 1.17125 9.489C-0.389751 9.11 -0.389751 6.889 1.17125 6.511C1.40573 6.45419 1.62348 6.34281 1.80676 6.18593C1.99005 6.02904 2.13369 5.83109 2.22599 5.60818C2.31829 5.38527 2.35664 5.14372 2.33792 4.90318C2.3192 4.66265 2.24393 4.42994 2.11825 4.224C1.28225 2.852 2.85225 1.282 4.22425 2.118C4.43019 2.24368 4.6629 2.31895 4.90343 2.33767C5.14397 2.35639 5.38552 2.31804 5.60843 2.22574C5.83134 2.13344 6.02929 1.9898 6.18618 1.80651C6.34306 1.62323 6.45444 1.40548 6.51125 1.171L6.51025 1.17ZM8.00025 11C7.2046 11 6.44154 10.6839 5.87893 10.1213C5.31632 9.55871 5.00025 8.79565 5.00025 8C5.00025 7.20435 5.31632 6.44129 5.87893 5.87868C6.44154 5.31607 7.2046 5 8.00025 5C8.7959 5 9.55896 5.31607 10.1216 5.87868C10.6842 6.44129 11.0002 7.20435 11.0002 8C11.0002 8.79565 10.6842 9.55871 10.1216 10.1213C9.55896 10.6839 8.7959 11 8.00025 11V11Z" fill="#303940"/>
</svg>
